<?xml version="1.0" encoding="UTF-8"?>
<svg width="380px" height="380px" viewBox="0 0 380 380" version="1.1" xmlns="http://www.w3.org/2000/svg" xmlns:xlink="http://www.w3.org/1999/xlink">
    <title>Group 65</title>
    <defs>
        <polygon id="path-1" points="0.0375127695 0.549803873 41.3689246 0.549803873 41.3689246 249.036602 0.0375127695 249.036602"></polygon>
        <polygon id="path-3" points="0.000142512496 0.549803873 181.158489 0.549803873 181.158489 249.036602 0.000142512496 249.036602"></polygon>
        <polygon id="path-5" points="0.508788756 0.0148663857 110.074007 0.0148663857 110.074007 17.2261692 0.508788756 17.2261692"></polygon>
        <polygon id="path-7" points="0.0375127695 0.218084491 34.6667481 0.218084491 34.6667481 151.56973 0.0375127695 151.56973"></polygon>
        <polygon id="path-9" points="0.508788756 0.218084491 110.074007 0.218084491 110.074007 151.56973 0.508788756 151.56973"></polygon>
        <polygon id="path-11" points="0.0375127695 0.362153421 57.8026504 0.362153421 57.8026504 162.529762 0.0375127695 162.529762"></polygon>
        <polygon id="path-13" points="0.0324107968 0.362153421 127.058794 0.362153421 127.058794 162.529762 0.0324107968 162.529762"></polygon>
        <polygon id="path-15" points="0.0375127695 0.0450599738 41.6743302 0.0450599738 41.6743302 189.605527 0.0375127695 189.605527"></polygon>
        <polygon id="path-17" points="0.393292199 0.0450599738 171.09343 0.0450599738 171.09343 189.605527 0.393292199 189.605527"></polygon>
        <polygon id="path-19" points="0.0935421464 0.0148663857 162.812206 0.0148663857 162.812206 45.5438004 0.0935421464 45.5438004"></polygon>
        <polygon id="path-21" points="0.0935421464 0.384233645 162.812206 0.384233645 162.812206 249.70406 0.0935421464 249.70406"></polygon>
        <polygon id="path-23" points="0.331061548 0.0148663857 188.128051 0.0148663857 188.128051 96.9262226 0.331061548 96.9262226"></polygon>
        <polygon id="path-25" points="0.331061548 0.158558944 188.128051 0.158558944 188.128051 317.643212 0.331061548 317.643212"></polygon>
    </defs>
    <g id="Launch-Page-+-Đặt-vé" stroke="none" stroke-width="1" fill="none" fill-rule="evenodd" opacity="0.14906529">
        <g id="2.-Đặt-vé-máy-bay---khứ-hồi" transform="translate(3.000000, 8.000000)">
            <g id="Group-65" transform="translate(-0.500000, -1.000000)">
                <g transform="translate(187.500000, 183.000000) rotate(90.000000) translate(-187.500000, -183.000000) translate(-2.000000, -6.000000)">
                    <g id="Group-40" transform="translate(0.000000, 0.000000)">
                        <g id="Group-3" transform="translate(0.000000, 124.605205)">
                            <mask id="mask-2" fill="white">
                                <use xlink:href="#path-1"></use>
                            </mask>
                            <g id="Clip-2"></g>
                            <path d="M41.3689246,207.160312 C36.4250932,218.953416 31.1075965,231.089362 21.640779,239.685552 C12.1733324,248.281112 -2.65061299,252.347396 -13.6347382,245.799446 C-24.0143308,239.610693 -27.6471882,226.682753 -31.8619318,215.357045 C-38.3916391,197.811759 -50.531359,179.928035 -68.9661445,176.663811 C-80.8133485,174.565875 -92.854305,179.033503 -103.41444,184.799524 C-113.973945,190.565545 -123.864753,197.742562 -135.186687,201.813878 C-146.508621,205.884566 -160.067514,206.336235 -169.72368,199.159848 C-179.646571,191.786563 -183.020253,177.750208 -180.117112,165.733785 C-177.213972,153.717992 -169.028562,143.579331 -159.593198,135.591449 C-144.415088,122.7434 -125.907331,114.629075 -108.772826,104.535708 C-91.638949,94.4429692 -75.013358,81.3439234 -67.5872313,62.8965566 C-59.1030152,41.8222093 -65.1470835,15.7436402 -82.0362532,0.549803873" id="Stroke-1" stroke="#FFFFFF" stroke-width="2" stroke-dasharray="3,3" mask="url(#mask-2)"></path>
                        </g>
                        <g id="Group-6" transform="translate(196.318754, 124.605205)">
                            <mask id="mask-4" fill="white">
                                <use xlink:href="#path-3"></use>
                            </mask>
                            <g id="Clip-5"></g>
                            <path d="M222.489901,207.160312 C217.546069,218.953416 212.228573,231.089362 202.761755,239.685552 C193.294309,248.281112 178.470363,252.347396 167.486238,245.799446 C157.106645,239.610693 153.473788,226.682753 149.259044,215.357045 C142.729337,197.811759 130.589617,179.928035 112.154832,176.663811 C100.307628,174.565875 88.2666713,179.033503 77.7065367,184.799524 C67.1470312,190.565545 57.2562231,197.742562 45.9342893,201.813878 C34.6123555,205.884566 21.0534623,206.336235 11.3972959,199.159848 C1.4744054,191.786563 -1.89927672,177.750208 1.00386387,165.733785 C3.90700446,153.717992 12.0924141,143.579331 21.5277782,135.591449 C36.7058879,122.7434 55.2136451,114.629075 72.3481507,104.535708 C89.4820272,94.4429692 106.107618,81.3439234 113.533745,62.8965566 C122.017961,41.8222093 115.973893,15.7436402 99.084723,0.549803873" id="Stroke-4" stroke="#FFFFFF" stroke-width="2" stroke-dasharray="3,3" mask="url(#mask-4)"></path>
                        </g>
                        <g id="Group-9" transform="translate(267.403236, 0.000000)">
                            <mask id="mask-6" fill="white">
                                <use xlink:href="#path-5"></use>
                            </mask>
                            <g id="Clip-8"></g>
                            <path d="M0.508788756,-102.007596 C22.0706624,-121.814375 47.9347199,-136.91448 75.7822231,-145.95542 C86.5059149,-149.436672 97.7385213,-152.049813 108.978676,-151.162201 C120.218203,-150.274588 131.548943,-145.482362 138.320212,-136.468472 C149.418198,-121.695481 145.059398,-99.4177302 132.811479,-85.5839351 C120.564189,-71.7495108 102.423806,-64.7404551 84.5834886,-59.9306148 C66.7437997,-55.1207745 48.2347845,-51.9270053 31.7337485,-43.6126371 C23.1136542,-39.269564 15.0332986,-33.4293132 9.51261351,-25.5106277 C3.99255746,-17.5919421 1.28002394,-7.39477876 3.70444514,1.94874175 C5.91435475,10.4644111 20.1174118,22.0323098 40.1607196,15.1125814" id="Stroke-7" stroke="#FFFFFF" stroke-width="2" stroke-dasharray="3,3" mask="url(#mask-6)"></path>
                        </g>
                        <g id="Group-12" transform="translate(0.000000, 225.884866)">
                            <mask id="mask-8" fill="white">
                                <use xlink:href="#path-7"></use>
                            </mask>
                            <g id="Clip-11"></g>
                            <path d="M-109.527705,49.5472682 C-87.9658314,29.7404893 -62.1017739,14.6403839 -34.2542706,5.59944421 C-23.5305788,2.11819176 -12.2979725,-0.494949299 -1.05781733,0.392663132 C10.1817088,1.2796465 21.5124495,6.072502 28.2837182,15.0870209 C39.3817044,29.8593828 35.0235336,52.1371338 22.7749853,65.970929 C10.5276952,79.8053532 -7.6126873,86.814409 -25.4530052,91.6248784 C-43.292694,96.4340896 -61.8017093,99.6278588 -78.3027452,107.941598 C-86.9228396,112.284671 -95.0031952,118.125551 -100.52388,126.044236 C-106.043936,133.962922 -108.75647,144.160085 -106.332049,153.503606 C-104.122139,162.019275 -89.919082,173.587174 -69.8757742,166.667445" id="Stroke-10" stroke="#FFFFFF" stroke-width="2" stroke-dasharray="3,3" mask="url(#mask-8)"></path>
                        </g>
                        <g id="Group-15" transform="translate(267.403236, 225.884866)">
                            <mask id="mask-10" fill="white">
                                <use xlink:href="#path-9"></use>
                            </mask>
                            <g id="Clip-14"></g>
                            <path d="M0.508788756,49.5472682 C22.0706624,29.7404893 47.9347199,14.6403839 75.7822231,5.59944421 C86.5059149,2.11819176 97.7385213,-0.494949299 108.978676,0.392663132 C120.218203,1.2796465 131.548943,6.072502 138.320212,15.0870209 C149.418198,29.8593828 145.059398,52.1371338 132.811479,65.970929 C120.564189,79.8053532 102.423806,86.814409 84.5834886,91.6248784 C66.7437997,96.4340896 48.2347845,99.6278588 31.7337485,107.941598 C23.1136542,112.284671 15.0332986,118.125551 9.51261351,126.044236 C3.99255746,133.962922 1.28002394,144.160085 3.70444514,153.503606 C5.91435475,162.019275 20.1174118,173.587174 40.1607196,166.667445" id="Stroke-13" stroke="#FFFFFF" stroke-width="2" stroke-dasharray="3,3" mask="url(#mask-10)"></path>
                        </g>
                        <g id="Group-18" transform="translate(0.000000, 51.633524)">
                            <mask id="mask-12" fill="white">
                                <use xlink:href="#path-11"></use>
                            </mask>
                            <g id="Clip-17"></g>
                            <path d="M57.8026504,162.529762 C49.1259401,149.852191 35.7167646,140.49546 20.8229929,136.726095 C5.92922114,132.956731 -10.3157848,134.809331 -23.9791031,141.834113 C-33.9277853,146.948421 -42.6032375,154.706066 -53.3067991,157.956451 C-65.6622887,161.708831 -79.4476458,158.794996 -90.3814457,151.92748 C-101.316504,145.061223 -109.613258,134.575318 -115.683118,123.179783 C-129.220623,97.7661373 -131.777777,65.2465592 -116.865762,40.6148425 C-107.051071,24.4025479 -88.7660036,12.3490102 -69.9003078,14.1456233 C-45.8353797,16.4379406 -26.7230899,39.5605275 -2.55876932,38.8937173 C17.5436707,38.3382518 34.0182858,20.108542 37.8272818,0.362153421" id="Stroke-16" stroke="#FFFFFF" stroke-width="2" stroke-dasharray="3,3" mask="url(#mask-12)"></path>
                        </g>
                        <g id="Group-21" transform="translate(250.418448, 51.633524)">
                            <mask id="mask-14" fill="white">
                                <use xlink:href="#path-13"></use>
                            </mask>
                            <g id="Clip-20"></g>
                            <path d="M184.823932,162.529762 C176.147222,149.852191 162.738046,140.49546 147.844275,136.726095 C132.951132,132.956731 116.705497,134.809331 103.042179,141.834113 C93.0934964,146.948421 84.4180442,154.706066 73.7144825,157.956451 C61.3589929,161.708831 47.5736359,158.794996 36.639836,151.92748 C25.7047779,145.061223 17.4080236,134.575318 11.3381637,123.179783 C-2.19934131,97.7661373 -4.75649548,65.2465592 10.1555192,40.6148425 C19.9702103,24.4025479 38.255278,12.3490102 57.1209738,14.1456233 C81.1859019,16.4379406 100.298192,39.5605275 124.462512,38.8937173 C144.564952,38.3382518 161.039567,20.108542 164.848563,0.362153421" id="Stroke-19" stroke="#FFFFFF" stroke-width="2" stroke-dasharray="3,3" mask="url(#mask-14)"></path>
                        </g>
                        <g id="Group-24" transform="translate(0.000000, 39.052200)">
                            <mask id="mask-16" fill="white">
                                <use xlink:href="#path-15"></use>
                            </mask>
                            <g id="Clip-23"></g>
                            <path d="M-19.8433701,111.883767 C12.2000048,118.648745 39.4593312,94.8253786 41.4069202,73.8252611 C42.7405406,59.4441783 39.1146029,44.6648966 29.8843143,33.5555872 C20.6546548,22.4462778 7.80660636,14.8578521 -5.58558433,9.44914073 C-28.6282798,0.142735125 -54.6760247,-3.19697742 -78.5358772,3.75294614 C-97.1210095,9.16606093 -113.838444,20.7905755 -125.383696,36.3285111 C-136.929578,51.8658176 -143.235338,71.2265885 -143.055425,90.5835851 C-142.839026,113.882311 -133.655917,137.836523 -141.193389,159.883407 C-145.864834,173.544209 -157.042083,184.817075 -170.662625,189.605527" id="Stroke-22" stroke="#FFFFFF" stroke-width="2" stroke-dasharray="3,3" mask="url(#mask-16)"></path>
                        </g>
                        <g id="Group-27" transform="translate(206.383813, 39.052200)">
                            <mask id="mask-18" fill="white">
                                <use xlink:href="#path-17"></use>
                            </mask>
                            <g id="Clip-26"></g>
                            <path d="M151.212547,111.883767 C183.255922,118.648745 210.515248,94.8253786 212.462837,73.8252611 C213.796457,59.4441783 210.17052,44.6648966 200.940231,33.5555872 C191.710572,22.4462778 178.862523,14.8578521 165.470332,9.44914073 C142.427637,0.142735125 116.379892,-3.19697742 92.5200396,3.75294614 C73.9349073,9.16606093 57.2174726,20.7905755 45.6722203,36.3285111 C34.126339,51.8658176 27.8205792,71.2265885 28.0004922,90.5835851 C28.216891,113.882311 37.3999996,137.836523 29.8625282,159.883407 C25.1910824,173.544209 14.0138339,184.817075 0.393292199,189.605527" id="Stroke-25" stroke="#FFFFFF" stroke-width="2" stroke-dasharray="3,3" mask="url(#mask-18)"></path>
                        </g>
                        <g id="Group-30" transform="translate(62.956716, 0.000000)">
                            <mask id="mask-20" fill="white">
                                <use xlink:href="#path-19"></use>
                            </mask>
                            <g id="Clip-29"></g>
                            <path d="M139.010864,-249.30496 C139.430451,-213.657665 133.362478,-198.560076 125.053143,-184.762137 C118.793934,-174.368705 109.910261,-165.898329 101.446804,-157.206521 C83.988329,-139.279392 68.312628,-117.984242 64.5426342,-93.2462132 C60.7726403,-68.5081842 72.2153548,-40.1039574 95.5801322,-31.1429091 C106.531546,-26.942634 118.618424,-27.3257353 130.236019,-25.7128095 C141.854243,-24.1005128 154.255025,-19.5863337 159.902153,-9.30550449 C165.448001,0.789121085 162.593927,13.9919628 155.335132,22.9347682 C148.075708,31.8769444 137.219912,37.173682 126.223206,40.5983185 C107.863908,46.3152722 87.8124226,47.4834482 69.4009125,41.9394876 C50.9887735,36.394898 34.4235728,23.76891 25.9154522,6.52557591 C15.2339078,-15.1218507 18.1099986,-41.1651921 25.9343242,-64.0002957 C33.7592789,-86.8353994 46.1380439,-107.865712 54.5033664,-130.508321 C62.8680599,-153.150931 66.9890727,-178.816832 57.8764195,-201.169442 C48.7643953,-223.521423 22.9909234,-240.159596 0.0935421464,-232.520844" id="Stroke-28" stroke="#FFFFFF" stroke-width="2" stroke-dasharray="3,3" mask="url(#mask-20)"></path>
                        </g>
                        <g id="Group-33" transform="translate(62.956716, 127.750536)">
                            <mask id="mask-22" fill="white">
                                <use xlink:href="#path-21"></use>
                            </mask>
                            <g id="Clip-32"></g>
                            <path d="M139.010864,0.384233645 C139.430451,36.0315289 133.362478,51.1291181 125.053143,64.9276856 C118.793934,75.3198595 109.910261,83.7914942 101.446804,92.4826731 C83.988329,110.409802 68.312628,131.704952 64.5426342,156.442981 C60.7726403,181.18101 72.2153548,209.585236 95.5801322,218.546285 C106.531546,222.745931 118.618424,222.363458 130.236019,223.976384 C141.854243,225.588681 154.255025,230.103489 159.902153,240.383689 C165.448001,250.478315 162.593927,263.681157 155.335132,272.623962 C148.075708,281.566138 137.219912,286.862876 126.223206,290.287512 C107.863908,296.004466 87.8124226,297.173271 69.4009125,291.628681 C50.9887735,286.084092 34.4235728,273.458104 25.9154522,256.21477 C15.2339078,234.567343 18.1099986,208.524002 25.9343242,185.688898 C33.7592789,162.853794 46.1380439,141.824111 54.5033664,119.181501 C62.8680599,96.538892 66.9890727,70.8723613 57.8764195,48.5203805 C48.7643953,26.1671416 22.9909234,9.52896923 0.0935421464,17.1683494" id="Stroke-31" stroke="#FFFFFF" stroke-width="2" stroke-dasharray="3,3" mask="url(#mask-22)"></path>
                        </g>
                        <g id="Group-36" transform="translate(61.069517, 0.000000)">
                            <mask id="mask-24" fill="white">
                                <use xlink:href="#path-23"></use>
                            </mask>
                            <g id="Clip-35"></g>
                            <path d="M186.84443,-11.7672922 C191.933576,17.7755445 181.652746,49.5415012 160.219831,70.5013585 C138.786287,91.4612158 106.798899,101.029313 77.3768431,95.2815349 C47.9554162,89.5337569 21.9202527,68.6305156 9.95100976,41.1453544 C2.17512226,23.2911971 0.194192741,3.43094757 0.338248905,-16.0424262 C0.840872811,-84.3143536 27.2679446,-152.082399 73.1155485,-202.671904 C80.7505252,-211.096359 88.946629,-219.121357 95.1567706,-228.644161 C101.366912,-238.167594 110.283926,-249.72417 110.702884,-271.112421 C111.180345,-295.445961 93.8785081,-311.353158 79.2495732,-315.986231 C64.6212674,-320.618674 33.1182604,-314.308511 22.6336137,-298.372377" id="Stroke-34" stroke="#FFFFFF" stroke-width="2" stroke-dasharray="3,3" mask="url(#mask-24)"></path>
                        </g>
                        <g id="Group-39" transform="translate(61.069517, 59.811385)">
                            <mask id="mask-26" fill="white">
                                <use xlink:href="#path-25"></use>
                            </mask>
                            <g id="Clip-38"></g>
                            <path d="M186.84443,305.861053 C191.933576,335.40389 181.652746,367.170475 160.219831,388.129704 C138.786287,409.089561 106.798899,418.657658 77.3768431,412.90988 C47.9554162,407.162102 21.9202527,386.258861 9.95100976,358.7737 C2.17512226,340.919542 0.194192741,321.059293 0.338248905,301.585919 C0.840872811,233.313992 27.2679446,165.545946 73.1155485,114.956441 C80.7505252,106.531986 88.946629,98.5076177 95.1567706,88.9841842 C101.366912,79.4607508 110.283926,67.9035462 110.702884,46.5152949 C111.180345,22.1823845 93.8785081,6.27518714 79.2495732,1.64211445 C64.6212674,-2.99032917 33.1182604,3.31983405 22.6336137,19.2559685" id="Stroke-37" stroke="#FFFFFF" stroke-width="2" stroke-dasharray="3,3" mask="url(#mask-26)"></path>
                        </g>
                    </g>
                    <path d="M357.319598,151.169308 C357.948113,150.191272 359.907636,147.780069 359.980372,147.63582 C360.0873,147.42442 359.743513,147.355404 359.285338,147.288876 C358.827784,147.220481 357.961168,148.081625 357.629815,148.347119 C357.29784,148.613234 355.674643,149.967437 355.674643,149.967437 C355.674643,149.967437 354.774456,149.463186 354.272764,149.225672 C353.769828,148.988158 352.729764,148.570954 352.358001,148.425461 C351.115893,147.940485 351.331614,148.071055 350.515975,147.77323 C349.886217,147.542555 348.816935,147.133434 348.677679,147.077476 C348.677679,147.077476 349.904246,144.056943 350.383558,142.983156 C350.862249,141.909991 353.310409,138.091735 353.56654,137.645929 C353.820805,137.201368 353.66663,137.187689 353.137583,137.100642 C351.794141,136.880537 351.656129,137.090072 351.656129,137.090072 L348.369949,140.415269 L347.280773,140.088842 C346.852438,139.960759 346.399858,140.202625 346.270549,140.632886 C346.141862,141.061904 346.384938,141.51517 346.814516,141.643875 L347.078728,141.722839 L346.264333,142.547921 L344.976841,142.161805 C344.548507,142.032478 344.095926,142.275588 343.966618,142.706471 C343.837931,143.134245 344.08225,143.587511 344.510584,143.716217 L344.971868,143.853626 L343.352402,145.49322 C343.352402,145.49322 342.273794,145.139436 340.855751,144.791869 C339.471278,144.453007 337.719395,144.329276 336.982709,144.377152 C336.247266,144.426272 336.035896,144.840367 336.035896,144.840367 L336.001082,144.956637 C336.001082,144.956637 335.950727,145.418608 336.536967,145.863791 C337.125073,146.310218 338.656261,147.17074 339.999703,147.650742 C341.372364,148.140071 342.469,148.43914 342.469,148.43914 L342.919094,150.698632 L342.458432,150.5606 C342.028232,150.431273 341.576895,150.675627 341.44883,151.104644 C341.318899,151.53304 341.561975,151.986307 341.992175,152.115012 L343.277179,152.501749 L343.504091,153.638335 L343.241122,153.559371 C342.811544,153.430044 342.358964,153.673775 342.230277,154.103415 C342.100968,154.532432 342.344665,154.985699 342.774865,155.113782 L343.864041,155.44083 L344.777283,160.0251 C344.777283,160.0251 344.776662,160.278158 346.021257,160.832772 C346.50803,161.051633 346.646042,161.125623 346.677747,160.613289 C346.708831,160.101577 346.766647,155.563318 346.957501,154.404971 C347.150221,153.246001 347.786817,150.047023 347.786817,150.047023 C347.933533,150.078111 349.05255,150.324952 349.702823,150.479149 C350.548924,150.679979 350.297767,150.670653 351.602043,150.948582 C351.991834,151.031276 353.089714,151.255733 353.639276,151.334076 C354.189459,151.412418 355.220198,151.486408 355.220198,151.486408 C355.220198,151.486408 355.829441,153.511495 355.959371,153.91502 C356.089923,154.319789 356.339837,155.516064 356.758846,155.71192 C357.178478,155.906532 357.503614,156.038968 357.530968,155.803319 C357.55024,155.632334 357.306543,152.294702 357.319598,151.169308" id="Fill-41" fill="#FFFFFF"></path>
                    <path d="M58.450759,215.20699 C57.3630183,215.554443 54.3702052,216.153414 54.2255394,216.21737 C54.0125082,216.311459 54.2292018,216.580197 54.5337936,216.920885 C54.8365542,217.261574 56.0311158,217.152726 56.4486324,217.160105 C56.8655387,217.167485 58.9421346,217.16072 58.9421346,217.16072 C58.9421346,217.16072 59.3053253,218.112679 59.5360581,218.610183 C59.7680118,219.108301 60.2929597,220.082399 60.4827954,220.428007 C61.1170057,221.581058 61.0358219,221.346143 61.466157,222.087171 C61.7976066,222.660314 62.3494123,223.647326 62.4202192,223.778313 C62.4202192,223.778313 59.6001506,225.303416 58.5649047,225.818753 C57.5308795,226.33409 53.2879581,227.696228 52.8161155,227.873337 C52.3448833,228.051675 52.4529249,228.159294 52.7978034,228.559018 C53.675565,229.574933 53.9111811,229.502983 53.9111811,229.502983 L58.4788376,229.044837 L59.0977877,229.981422 C59.3407287,230.349169 59.8357667,230.450637 60.2020094,230.205268 C60.5688625,229.959284 60.6683584,229.461166 60.4241966,229.091574 L60.2734267,228.864654 L61.4069478,228.750271 L62.1376019,229.856585 C62.3805429,230.226177 62.8755809,230.326415 63.2430444,230.080431 C63.6074559,229.835062 63.7069518,229.336943 63.4640108,228.967967 L63.2021473,228.571317 L65.4533189,228.345627 C65.4533189,228.345627 66.0466321,229.296356 66.9018087,230.456172 C67.7350108,231.588315 68.9820671,232.788718 69.5686658,233.216116 C70.1558748,233.643514 70.5752227,233.461485 70.5752227,233.461485 L70.6734978,233.39507 C70.6734978,233.39507 71.0018954,233.075905 70.8370862,232.365625 C70.6716666,231.655346 70.0545477,230.033079 69.3397641,228.819761 C68.6078891,227.580616 67.9663541,226.660019 67.9663541,226.660019 L69.0418867,224.655247 L69.3031398,225.051897 C69.547912,225.421488 70.0417292,225.520497 70.4079719,225.274513 C70.7742145,225.030988 70.8749313,224.531025 70.6301591,224.162664 L69.9007258,223.056964 L70.4415441,222.047813 L70.5910932,222.274119 C70.8340342,222.64371 71.3296826,222.743949 71.6959253,222.497965 C72.0621679,222.252595 72.1616639,221.753862 71.9175021,221.384886 L71.298552,220.447685 L73.4807479,216.380335 C73.4807479,216.380335 73.6394531,216.187852 73.0455295,214.980684 C72.8141862,214.505934 72.7568082,214.363264 72.4119297,214.73347 C72.068272,215.103061 69.1810589,218.522243 68.3106222,219.28418 C67.439575,220.044886 64.9540081,222.078561 64.9540081,222.078561 C64.8624474,221.961719 64.1708592,221.068181 63.7765379,220.540545 C63.2625773,219.853633 63.4463091,220.018443 62.6344712,218.984694 C62.3915302,218.674754 61.7023835,217.810734 61.3361409,217.404245 C60.9692878,216.997756 60.2361921,216.290551 60.2361921,216.290551 C60.2361921,216.290551 61.044978,214.363879 61.1987999,213.974608 C61.354453,213.583493 61.9148043,212.514692 61.7200853,212.101438 C61.5253663,211.688184 61.3629987,211.381934 61.1939166,211.544283 C61.0718357,211.662356 59.1655426,214.358344 58.450759,215.20699" id="Fill-43" fill="#FFFFFF"></path>
                    <path d="M83.1087531,80.5354894 C82.4696024,79.7938093 80.9875408,77.6298932 80.889067,77.5366318 C80.7447626,77.3998905 80.6103675,77.6645512 80.4505799,78.0224732 C80.2907922,78.3803953 80.7813032,79.2884335 80.9181756,79.6211497 C81.0544286,79.9544962 81.7666605,81.5966526 81.7666605,81.5966526 C81.7666605,81.5966526 81.1547604,82.2116736 80.8488104,82.5658148 C80.542241,82.9205862 79.9687395,83.6710882 79.7668373,83.9407901 C79.0917653,84.8393761 79.2453597,84.6944429 78.8186399,85.2899294 C78.4891552,85.7493047 77.9144151,86.5256427 77.8376179,86.6270959 C77.8376179,86.6270959 75.6990643,84.917514 74.9484338,84.2753968 C74.1984227,83.6332796 71.7012758,80.7409165 71.4039964,80.4283648 C71.1054784,80.1158131 71.0590285,80.2386913 70.8676549,80.6501757 C70.3808599,81.6936949 70.5177322,81.8562722 70.5177322,81.8562722 L72.4265137,85.3157653 L71.9130874,86.1280215 C71.7124238,86.4468746 71.8022269,86.8734824 72.1168476,87.0795397 C72.4314683,87.2855969 72.8507561,87.1929657 73.0526584,86.8728523 L73.1771441,86.6762472 L73.6509331,87.5332437 L73.0446071,88.4929537 C72.8420855,88.812437 72.932508,89.2390448 73.2483673,89.445102 C73.5623687,89.649899 73.9810371,89.5572677 74.1835587,89.2377845 L74.3997056,88.8937256 L75.3410903,90.5988965 C75.3410903,90.5988965 74.8090841,91.3966594 74.2039967,92.4716859 C73.6131539,93.5215066 73.1096369,94.9223177 72.9795772,95.5335579 C72.8488981,96.1454282 73.1325522,96.41513 73.1325522,96.41513 L73.2167814,96.4705827 C73.2167814,96.4705827 73.5753746,96.6199269 74.0677436,96.2456211 C74.5607319,95.8706852 75.6036871,94.8233851 76.2979584,93.8403597 C77.0064743,92.8346491 77.4988433,92.00979 77.4988433,92.00979 L79.4144373,92.1723673 L79.1976711,92.515796 C78.9945302,92.8365396 79.0868107,93.2625172 79.400812,93.4673142 C79.7148134,93.6740016 80.1341012,93.5813703 80.3360034,93.2612569 L80.9417102,92.3028072 L81.9060102,92.3840958 L81.7815245,92.5807009 C81.5783836,92.9008143 81.6700447,93.326792 81.9852847,93.532219 C82.2986667,93.7389064 82.7179546,93.6456451 82.9198568,93.3255317 L83.4332831,92.5126453 L87.3189724,92.842841 C87.3189724,92.842841 87.521494,92.9020746 88.2529252,92.0167216 C88.5402953,91.6707723 88.6313371,91.5756205 88.2275326,91.4306872 C87.8249667,91.2851239 84.2006355,90.173549 83.31561,89.7469412 C82.4305845,89.3178128 80.0133314,88.0487019 80.0133314,88.0487019 C80.072168,87.9365362 80.527377,87.0814301 80.8005025,86.5873968 C81.1572378,85.9440193 81.0915886,86.1469259 81.6143048,85.1481469 C81.7709958,84.8494584 82.2039089,84.0063251 82.3934245,83.5759364 C82.5823208,83.1461779 82.8796002,82.3225791 82.8796002,82.3225791 C82.8796002,82.3225791 84.6434579,82.300524 84.9964772,82.2885513 C85.3513545,82.2772087 86.3682977,82.3534562 86.6209852,82.0579184 C86.874292,81.7611204 87.055137,81.5267066 86.872434,81.4491988 C86.7392776,81.393116 84.0074039,80.8102323 83.1087531,80.5354894" id="Fill-45" fill="#FFFFFF"></path>
                    <path d="M37.3248913,51.5766766 C38.0123232,51.8972798 39.7444828,52.9587779 39.8440668,52.9932381 C39.98952,53.0430824 40.0027978,52.8110912 40.0034014,52.504026 C40.005212,52.1975761 39.3714951,51.7089793 39.1705163,51.5163712 C38.968934,51.3231478 37.9471409,50.3841066 37.9471409,50.3841066 C37.9471409,50.3841066 38.189764,49.7465923 38.295987,49.3946057 C38.4028136,49.0420037 38.5760295,48.320185 38.63578,48.0623487 C38.8343446,47.2020737 38.7703694,47.355914 38.8868526,46.7922431 C38.9773835,46.3577981 39.1427535,45.6169032 39.165688,45.5202915 C39.165688,45.5202915 41.2231555,46.0433485 41.9582671,46.2574942 C42.6933787,46.4710246 45.3767171,47.7208232 45.6863331,47.8475876 C45.9959491,47.9731213 45.9905172,47.870356 45.9983632,47.5152926 C46.017073,46.6125576 45.8692057,46.5411757 45.8692057,46.5411757 L43.4266797,44.6950921 L43.5371275,43.9492743 C43.5805824,43.6563623 43.3826213,43.3819112 43.0947328,43.3369899 C42.8062407,43.2926839 42.5370619,43.4951377 42.4930035,43.788665 L42.4670513,43.9695812 L41.8610972,43.5123678 L41.9908583,42.6311705 C42.0349167,42.3376432 41.8369556,42.0631921 41.54786,42.0182708 C41.260575,41.9745801 40.9913962,42.177034 40.9473378,42.4705613 L40.9008652,42.7856262 L39.6974066,41.8761223 C39.6974066,41.8761223 39.8259606,41.134612 39.9195093,40.1709564 C40.0106439,39.2306844 39.929166,38.0688824 39.830789,37.5901314 C39.7318084,37.1113804 39.4457305,37.0116919 39.4457305,37.0116919 L39.3684774,37 C39.3684774,37 39.0661039,37.0098458 38.8331375,37.4362911 C38.5995676,37.8639672 38.1861427,38.9494644 38.0002524,39.8768137 C37.811948,40.8238546 37.7190028,41.5715185 37.7190028,41.5715185 L36.3061159,42.0785762 L36.353192,41.7635112 C36.3966469,41.4687532 36.1980823,41.1949174 35.9095902,41.1512268 C35.6223052,41.1056901 35.3519193,41.3081439 35.3084645,41.6022866 L35.1780998,42.4822531 L34.4677334,42.737628 L34.4942891,42.5573272 C34.5383475,42.2637999 34.3391794,41.9887334 34.0506873,41.9450428 C33.7627988,41.9001214 33.49362,42.1025752 33.4501651,42.3967179 L33.3397173,43.1425357 L30.4722992,44.1708043 C30.4722992,44.1708043 30.3093434,44.194188 30.0667204,45.0630781 C29.970154,45.4039882 29.9351487,45.5005999 30.2683027,45.473524 C30.6002497,45.4464481 33.5268147,45.0600013 34.2908962,45.076616 C35.0543742,45.0944615 37.1721957,45.2132262 37.1721957,45.2132262 C37.1655567,45.3129147 37.1100311,46.0704244 37.0701974,46.5116384 C37.018293,47.0863858 37.0013939,46.9202383 36.942247,47.8020509 C36.9247443,48.0660408 36.8812895,48.8081665 36.8812895,49.1761525 C36.8812895,49.5447539 36.9283656,50.2284202 36.9283656,50.2284202 C36.9283656,50.2284202 35.6796415,50.8173209 35.4321901,50.9403931 C35.1829282,51.0640807 34.4363493,51.3403779 34.348836,51.6332898 C34.2619263,51.9274325 34.2064006,52.1532701 34.3609068,52.1489626 C34.4725617,52.1458857 36.5994363,51.6732883 37.3248913,51.5766766" id="Fill-47" fill="#FFFFFF"></path>
                    <path d="M202.78235,130.043413 C203.778486,130.299233 206.349509,131.274509 206.491179,131.295985 C206.698919,131.326936 206.660801,131.020583 206.590284,130.618851 C206.521037,130.217118 205.556666,129.730112 205.241561,129.526087 C204.926457,129.320799 203.336959,128.336049 203.336959,128.336049 C203.336959,128.336049 203.512299,127.445415 203.573287,126.959672 C203.63364,126.473929 203.695898,125.489179 203.715592,125.137347 C203.779757,123.966258 203.730204,124.182284 203.754345,123.417981 C203.774039,122.828015 203.822321,121.820525 203.829945,121.688509 C203.829945,121.688509 206.710989,121.88369 207.745878,121.988545 C208.781403,122.0934 212.67129,123.08952 213.116629,123.18111 C213.561332,123.271437 213.530203,123.138158 213.456509,122.672628 C213.270369,121.488274 213.055005,121.430162 213.055005,121.430162 L209.348082,119.597099 L209.3214,118.595925 C209.3106,118.203035 208.981519,117.890998 208.584463,117.900473 C208.187406,117.911211 207.874207,118.239671 207.884372,118.634456 L207.89136,118.877012 L206.972094,118.423483 L206.939694,117.240393 C206.929529,116.84624 206.599813,116.534202 206.202121,116.544941 C205.806335,116.555679 205.493772,116.884771 205.503301,117.278292 L205.515372,117.702133 L203.688275,116.798866 C203.688275,116.798866 203.687004,115.798956 203.585993,114.517327 C203.487523,113.266018 203.106984,111.766469 202.862396,111.164501 C202.617174,110.562534 202.210588,110.5 202.210588,110.5 L202.103859,110.502527 C202.103859,110.502527 201.701085,110.587168 201.488897,111.201137 C201.27671,111.815738 200.976218,113.332974 200.944453,114.588073 C200.913959,115.871596 200.966053,116.870875 200.966053,116.870875 L199.189779,117.870153 L199.178344,117.446313 C199.168179,117.051528 198.837193,116.740754 198.441406,116.751492 C198.044985,116.760967 197.731151,117.089427 197.741316,117.484212 L197.772445,118.665407 L196.879861,119.168205 L196.872873,118.926281 C196.863344,118.531496 196.532357,118.22009 196.1353,118.230828 C195.738879,118.240935 195.42568,118.569396 195.43648,118.96418 L195.463162,119.965985 L191.860427,121.991704 C191.860427,121.991704 191.647604,122.061186 191.525629,123.254382 C191.476711,123.721807 191.45257,123.857613 191.892191,123.742652 C192.331178,123.628322 196.163253,122.426914 197.191154,122.267105 C198.219055,122.109823 201.085488,121.761781 201.085488,121.761781 C201.100735,121.893165 201.203652,122.896865 201.253204,123.483042 C201.318639,124.246081 201.257651,124.033213 201.38471,125.200512 C201.422827,125.549817 201.53845,126.530146 201.62485,127.010836 C201.710614,127.492157 201.934236,128.37458 201.934236,128.37458 C201.934236,128.37458 200.399373,129.441445 200.096339,129.661893 C199.792035,129.882341 198.854346,130.421143 198.806699,130.82477 C198.759052,131.229661 198.737452,131.537909 198.943286,131.49622 C199.09258,131.465269 201.83259,130.342186 202.78235,130.043413" id="Fill-49" fill="#FFFFFF"></path>
                    <path d="M248.048064,363.863905 C249.047377,363.927594 251.686033,364.397146 251.824551,364.390902 C252.028619,364.38216 251.935861,364.091812 251.79425,363.715297 C251.653258,363.338157 250.641578,363.044687 250.302702,362.904821 C249.963826,362.764954 248.262644,362.104335 248.262644,362.104335 C248.262644,362.104335 248.265117,361.206442 248.232961,360.724403 C248.200805,360.241114 248.078365,359.273288 248.031986,358.929242 C247.87677,357.779714 247.868731,357.998256 247.75062,357.252093 C247.659717,356.675768 247.519961,355.68921 247.502647,355.559334 C247.502647,355.559334 250.292189,355.213415 251.302015,355.122876 C252.310603,355.031713 256.212624,355.276479 256.655388,355.282724 C257.096917,355.287719 257.042499,355.164087 256.886047,354.725755 C256.488424,353.61057 256.272607,353.594336 256.272607,353.594336 L252.389757,352.504127 L252.179505,351.536925 C252.096642,351.157288 251.723136,350.916268 251.34592,350.999313 C250.968704,351.082984 250.730007,351.460748 250.812871,351.841634 L250.864197,352.075786 L249.901369,351.806043 L249.652159,350.663384 C249.569295,350.283122 249.195789,350.042102 248.817955,350.125772 C248.441976,350.210067 248.203279,350.587207 248.286143,350.968093 L248.37519,351.376453 L246.461902,350.84009 C246.461902,350.84009 246.275767,349.869143 245.942457,348.644062 C245.616567,347.447705 244.974682,346.062777 244.63024,345.523916 C244.284562,344.985056 243.883847,345 243.883847,345 L243.782432,345.02252 C243.782432,345.02252 243.412637,345.179245 243.322971,345.814264 C243.234541,346.449907 243.228357,347.979072 243.43057,349.203528 C243.638348,350.454833 243.872716,351.415166 243.872716,351.415166 L242.360761,352.715799 L242.271095,352.306191 C242.188231,351.92468 241.814725,351.684284 241.438128,351.768579 C241.060912,351.851625 240.821596,352.228765 240.90446,352.610275 L241.15367,353.751061 L240.392436,354.405436 L240.341728,354.171285 C240.258864,353.789774 239.885359,353.548754 239.507525,353.633049 C239.130309,353.716719 238.891611,354.094483 238.975094,354.474745 L239.186582,355.442571 L236.117528,358.078179 C236.117528,358.078179 235.926447,358.184952 236.031573,359.366324 C236.071768,359.829008 236.073623,359.965128 236.472482,359.771563 C236.870724,359.579246 240.311427,357.701664 241.264361,357.35512 C242.217295,357.011073 244.893055,356.140654 244.893055,356.140654 C244.931395,356.265535 245.215852,357.220249 245.371686,357.780339 C245.575753,358.509018 245.47743,358.31358 245.815688,359.423145 C245.916485,359.754704 246.207745,360.684441 246.380275,361.135885 C246.551568,361.587329 246.928165,362.402176 246.928165,362.402176 C246.928165,362.402176 245.659236,363.72279 245.409407,363.993157 C245.159579,364.264148 244.363715,364.960358 244.392161,365.36185 C244.421844,365.763341 244.45771,366.066177 244.647555,365.987502 C244.784837,365.930057 247.195308,364.330335 248.048064,363.863905" id="Fill-51" fill="#FFFFFF"></path>
                    <path d="M205.206168,229.483813 C205.207404,228.710959 205.441539,226.658856 205.430419,226.552149 C205.414357,226.395481 205.196902,226.4806 204.915816,226.607045 C204.63473,226.732872 204.458048,227.525464 204.367854,227.793156 C204.276424,228.060232 203.852633,229.400544 203.852633,229.400544 C203.852633,229.400544 203.166908,229.440636 202.799952,229.487513 C202.432996,229.535007 201.70032,229.673788 201.439003,229.726216 C200.569182,229.898921 200.736598,229.894603 200.172574,230.020431 C199.736428,230.116652 198.990161,230.270236 198.891935,230.289974 C198.891935,230.289974 198.496562,228.15892 198.379803,227.386683 C198.263045,226.614446 198.265516,223.599515 198.249454,223.258423 C198.232774,222.917947 198.140726,222.966058 197.813308,223.106689 C196.981171,223.464435 196.9787,223.631588 196.9787,223.631588 L196.329423,226.669959 L195.600454,226.877821 C195.315044,226.959239 195.148245,227.257772 195.229791,227.543968 C195.311337,227.830781 195.610956,227.997318 195.897601,227.915283 L196.074284,227.864705 L195.913663,228.618438 L195.053109,228.863309 C194.766463,228.944727 194.599665,229.24326 194.681829,229.530073 C194.763992,229.816269 195.062993,229.982189 195.349639,229.900771 L195.657288,229.812568 L195.337283,231.310782 C195.337283,231.310782 194.605843,231.499524 193.685982,231.81286 C192.787744,232.118794 191.761009,232.677617 191.365636,232.967514 C190.970263,233.259262 191.000534,233.567047 191.000534,233.567047 L191.022774,233.644147 C191.022774,233.644147 191.160536,233.920475 191.649193,233.95995 C192.138467,233.998809 193.305436,233.932194 194.230856,233.719397 C195.177281,233.501666 195.899454,233.275916 195.899454,233.275916 L196.96202,234.379376 L196.65437,234.467579 C196.366489,234.548997 196.201544,234.847529 196.283708,235.133726 C196.364018,235.420539 196.663637,235.587076 196.9509,235.505658 L197.809601,235.260787 L198.345208,235.81591 L198.169144,235.865871 C197.882498,235.947289 197.7157,236.246438 197.797246,236.532634 C197.879409,236.819448 198.17841,236.985368 198.465056,236.902716 L199.194025,236.69547 L201.350662,238.935081 C201.350662,238.935081 201.440857,239.076946 202.337859,238.941249 C202.689989,238.888821 202.793774,238.880802 202.626976,238.582887 C202.461414,238.286204 200.865712,235.724623 200.556827,235.007281 C200.249177,234.28994 199.457813,232.271761 199.457813,232.271761 C199.551714,232.235986 200.26771,231.972612 200.687794,231.826429 C201.233903,231.635221 201.089963,231.720339 201.920864,231.408237 C202.169208,231.315717 202.865436,231.047408 203.201503,230.89444 C203.538188,230.740857 204.142367,230.413334 204.142367,230.413334 C204.142367,230.413334 205.210493,231.32867 205.428566,231.507542 C205.647256,231.687649 206.216841,232.26806 206.521402,232.227351 C206.82658,232.186025 207.056391,232.143466 206.987819,232.001601 C206.937161,231.899212 205.602777,230.117886 205.206168,229.483813" id="Fill-53" fill="#FFFFFF"></path>
                    <path d="M42.0647218,330.435849 C42.6487451,330.92844 44.0606828,332.421939 44.1479576,332.481075 C44.2764786,332.56852 44.3440268,332.341413 44.4175528,332.036925 C44.4922743,331.733696 43.9991123,331.088233 43.8514626,330.845398 C43.7038129,330.603192 42.9458379,329.411664 42.9458379,329.411664 C42.9458379,329.411664 43.3296076,328.841693 43.5161125,328.519591 C43.7014218,328.197488 44.0397608,327.526232 44.1575219,327.285284 C44.5526493,326.483173 44.4546146,326.61906 44.700299,326.090611 C44.8909883,325.68232 45.2251429,324.990932 45.2699758,324.900341 C45.2699758,324.900341 47.1224715,325.942141 47.7776297,326.341624 C48.4321901,326.741107 50.7126907,328.663656 50.9804926,328.868116 C51.2482945,329.070688 51.2680209,328.967515 51.3588823,328.617102 C51.5914156,327.727546 51.4664813,327.619339 51.4664813,327.619339 L49.5583928,325.167082 L49.8417367,324.455563 C49.9523246,324.176869 49.8273902,323.853508 49.5613816,323.736494 C49.295373,323.618222 48.9881182,323.750963 48.8769326,324.030916 L48.8081888,324.20392 L48.3347533,323.595574 L48.6695057,322.755088 C48.7806913,322.475765 48.6557569,322.153033 48.3885528,322.034761 C48.123142,321.918376 47.8164849,322.050489 47.7052993,322.330441 L47.5851471,322.631154 L46.6448516,321.423269 C46.6448516,321.423269 46.9449332,320.720557 47.2629479,319.78948 C47.5743872,318.880421 47.7722498,317.707766 47.7907807,317.208256 C47.8093116,316.708745 47.5576496,316.53637 47.5576496,316.53637 L47.4859169,316.504915 C47.4859169,316.504915 47.1936064,316.4376 46.8684183,316.801224 C46.5432303,317.166106 45.8880721,318.136817 45.4899559,319.008758 C45.0840687,319.899573 44.8174623,320.618013 44.8174623,320.618013 L43.3403675,320.760191 L43.4599219,320.459478 C43.5717053,320.178268 43.4461731,319.857423 43.1795668,319.73978 C42.914156,319.622137 42.6069011,319.75425 42.4957155,320.034202 L42.1609631,320.87343 L41.4179324,320.945777 L41.4860784,320.774031 C41.5984596,320.49345 41.4723297,320.170718 41.2057233,320.053075 C40.9397147,319.936062 40.6330577,320.068174 40.521872,320.348755 L40.2385281,321.060275 L37.240701,321.349035 C37.240701,321.349035 37.078107,321.330791 36.6393423,322.130385 C36.4665862,322.44368 36.4092,322.531126 36.7355836,322.588375 C37.0613694,322.645623 39.9635529,323.007989 40.6928349,323.218739 C41.4227146,323.431377 43.42824,324.088165 43.42824,324.088165 C43.3983514,324.185047 43.1652202,324.921731 43.0223527,325.349523 C42.8358478,325.905653 42.8591609,325.737053 42.5931523,326.595783 C42.5136487,326.853717 42.2954618,327.577818 42.2081871,327.9427 C42.1209124,328.307582 42.0031513,328.997712 42.0031513,328.997712 C42.0031513,328.997712 40.6653373,329.264453 40.3981332,329.32296 C40.1297336,329.382096 39.3466521,329.465767 39.1930247,329.734395 C39.0393973,330.003653 38.9329938,330.213146 39.0824368,330.248376 C39.1906336,330.27354 41.3450042,330.346516 42.0647218,330.435849" id="Fill-55" fill="#FFFFFF"></path>
                    <path d="M294.896517,123.772903 C295.537495,123.297564 297.384074,122.222557 297.465559,122.148462 C297.5849,122.038575 297.377657,121.915502 297.096628,121.766056 C296.815599,121.615982 296.048223,121.960713 295.769761,122.052389 C295.491298,122.143439 294.114384,122.626313 294.114384,122.626313 C294.114384,122.626313 293.651135,122.095716 293.381655,121.827592 C293.111534,121.560097 292.53536,121.052734 292.328759,120.873775 C291.639018,120.276619 291.747452,120.409111 291.288695,120.029844 C290.935163,119.736604 290.338457,119.227985 290.260821,119.159541 C290.260821,119.159541 291.776967,117.526937 292.343516,116.956781 C292.909424,116.385998 295.407888,114.531109 295.679934,114.308195 C295.951339,114.084654 295.853813,114.040072 295.53172,113.862369 C294.712373,113.409007 294.571858,113.509475 294.571858,113.509475 L291.64736,114.856374 L291.017931,114.394221 C290.770267,114.213379 290.418659,114.262357 290.23259,114.504736 C290.04652,114.747743 290.097208,115.091845 290.344873,115.273943 L290.49822,115.386342 L289.773191,115.720398 L289.028913,115.175359 C288.78189,114.993261 288.429641,115.042239 288.243572,115.284618 C288.058785,115.526997 288.108832,115.871728 288.356496,116.053826 L288.622768,116.24911 L287.181692,116.912199 C287.181692,116.912199 286.565097,116.436232 285.727142,115.884914 C284.90972,115.347411 283.801644,114.860141 283.312089,114.719486 C282.823175,114.578831 282.58706,114.792953 282.58706,114.792953 L282.537013,114.858257 C282.537013,114.858257 282.394574,115.140195 282.668545,115.559649 C282.944441,115.979731 283.733633,116.883314 284.490743,117.50182 C285.265818,118.132256 285.906154,118.578083 285.906154,118.578083 L285.660414,120.118382 L285.394142,119.922469 C285.146477,119.740371 284.79487,119.790605 284.609442,120.032984 C284.423373,120.275363 284.473419,120.620093 284.721726,120.802192 L285.464079,121.346602 L285.340246,122.121461 L285.188183,122.009691 C284.940518,121.827592 284.588911,121.877199 284.402841,122.119577 C284.216772,122.362584 284.26746,122.707315 284.515124,122.888785 L285.145194,123.35031 L284.646015,126.47549 C284.646015,126.47549 284.586344,126.636239 285.261327,127.277978 C285.526316,127.530404 285.597535,127.609522 285.739975,127.291164 C285.881773,126.974063 287.000114,124.104447 287.399201,123.413102 C287.800213,122.721757 288.975017,120.838611 288.975017,120.838611 C289.06356,120.892613 289.731486,121.309555 290.117099,121.559469 C290.618203,121.884106 290.457157,121.820057 291.238007,122.299792 C291.470914,122.443587 292.129857,122.842319 292.468632,123.020021 C292.806765,123.197724 293.45865,123.484686 293.45865,123.484686 C293.45865,123.484686 293.371389,124.912586 293.35984,125.199548 C293.348291,125.487137 293.225742,126.305323 293.45095,126.527608 C293.677442,126.748638 293.856453,126.908758 293.930881,126.765592 C293.984135,126.661356 294.61998,124.484341 294.896517,123.772903" id="Fill-57" fill="#FFFFFF"></path>
                    <path d="M265.648865,277.383598 C265.087369,276.29004 263.911135,273.213454 263.818274,273.071037 C263.682079,272.861863 263.444975,273.144153 263.151535,273.533256 C262.856858,273.921724 263.191775,275.174229 263.262349,275.620553 C263.332923,276.066877 263.727271,278.278789 263.727271,278.278789 C263.727271,278.278789 262.814142,278.848457 262.344268,279.18924 C261.873774,279.530659 260.968074,280.275804 260.647396,280.544743 C259.577642,281.439935 259.804841,281.308962 259.120768,281.908511 C258.592701,282.371366 257.678953,283.147029 257.557615,283.24812 C257.557615,283.24812 255.458348,280.530756 254.734654,279.525572 C254.010961,278.521025 251.814499,274.256149 251.543966,273.7863 C251.272194,273.317724 251.18119,273.453783 250.833273,273.898199 C249.951097,275.026726 250.06934,275.265147 250.06934,275.265147 L251.39415,280.047556 L250.544167,280.886162 C250.211107,281.214865 250.198726,281.761644 250.520023,282.106242 C250.841321,282.450204 251.373721,282.460377 251.708638,282.131038 L251.91417,281.926949 L252.244134,283.113333 L251.240621,284.103257 C250.905085,284.433232 250.893942,284.979375 251.216477,285.323973 C251.537156,285.666663 252.069556,285.677472 252.403854,285.348133 L252.763534,284.993998 L253.416653,287.35087 C253.416653,287.35087 252.548098,288.16468 251.512393,289.296386 C250.501451,290.401388 249.497319,291.959072 249.165497,292.66607 C248.834913,293.373068 249.101733,293.785695 249.101733,293.785695 L249.187784,293.877885 C249.187784,293.877885 249.578417,294.166533 250.279205,293.856268 C250.980611,293.545367 252.536335,292.577695 253.653757,291.584592 C254.794704,290.5686 255.62302,289.709649 255.62302,289.709649 L257.890056,290.474503 L257.530376,290.828638 C257.19484,291.159885 257.184935,291.705392 257.506233,292.048718 C257.826292,292.393316 258.359931,292.40476 258.694848,292.07415 L259.697742,291.086133 L260.838069,291.47015 L260.632538,291.672967 C260.297002,292.002306 260.286478,292.54972 260.607775,292.894318 C260.929692,293.23828 261.461473,293.248453 261.79639,292.918478 L262.646374,292.079236 L267.245448,293.63247 C267.245448,293.63247 267.473266,293.764714 268.606784,292.902584 C269.052515,292.565615 269.189329,292.476605 268.742979,292.179055 C268.297868,291.883413 264.236147,289.455969 263.28835,288.673312 C262.341172,287.888112 259.781316,285.625973 259.781316,285.625973 C259.884082,285.505173 260.676492,284.598537 261.147605,284.076554 C261.759246,283.398166 261.622432,283.625779 262.537418,282.563375 C262.811047,282.24548 263.572503,281.345838 263.922897,280.877897 C264.273291,280.409956 264.865122,279.493783 264.865122,279.493783 C264.865122,279.493783 267.001534,279.989699 267.431788,280.079345 C267.863899,280.170899 269.069229,280.565088 269.459244,280.278983 C269.848639,279.992878 270.133411,279.760179 269.935309,279.61204 C269.790446,279.503956 266.656712,277.984419 265.648865,277.383598" id="Fill-59" fill="#FFFFFF"></path>
                    <path d="M62.8610424,145.110607 C62.7331637,144.357934 62.6130534,142.319497 62.5849679,142.217026 C62.543736,142.067589 62.3507228,142.187139 62.1033313,142.357923 C61.857135,142.529318 61.8212812,143.330786 61.7788541,143.606482 C61.7376222,143.882787 61.5571579,145.260654 61.5571579,145.260654 C61.5571579,145.260654 60.9105937,145.41619 60.5693847,145.52415 C60.2275781,145.63272 59.5523309,145.893167 59.3127078,145.988318 C58.5125697,146.30488 58.6709241,146.272553 58.1546289,146.490913 C57.7560537,146.659258 57.0706479,146.936174 56.9798182,146.97155 C56.9798182,146.97155 56.2466072,144.96361 56.0063865,144.231066 C55.7661658,143.498521 55.2648097,140.561634 55.1925044,140.232264 C55.1196016,139.904113 55.0401256,139.965717 54.7515023,140.15846 C54.0182913,140.649466 54.0439866,140.812322 54.0439866,140.812322 L53.9334372,143.882787 L53.2737266,144.208498 C53.0149815,144.336586 52.9056273,144.655588 53.0317133,144.920914 C53.1572017,145.18624 53.4697276,145.29725 53.7302655,145.169162 L53.8898151,145.089869 L53.8623271,145.851081 L53.0842989,146.236566 C52.8243586,146.364655 52.7150044,146.683046 52.8410904,146.949592 C52.9671763,147.213089 53.2802998,147.324099 53.539045,147.19662 L53.8181074,147.058163 L53.7637291,148.571437 C53.7637291,148.571437 53.0980428,148.88007 52.2740022,149.341798 C51.4702787,149.793158 50.5846889,150.511674 50.2560288,150.862392 C49.9285637,151.213721 50.0086373,151.507714 50.0086373,151.507714 L50.043296,151.579078 C50.043296,151.579078 50.2201749,151.825496 50.6922504,151.78097 C51.1655211,151.734614 52.2668314,151.471728 53.1129819,151.10637 C53.9770594,150.733084 54.6278065,150.390294 54.6278065,150.390294 L55.8253246,151.284474 L55.5462623,151.422322 C55.2857244,151.551021 55.1781629,151.870022 55.3042489,152.134738 C55.4285422,152.399455 55.7422633,152.511075 56.001606,152.382376 L56.7796342,151.99811 L57.3825763,152.44703 L57.2230267,152.525713 C56.9630864,152.654412 56.8543297,152.974023 56.9804157,153.238739 C57.1059042,153.504066 57.4190277,153.614466 57.6783704,153.485767 L58.338081,153.159447 L60.7677759,154.974034 C60.7677759,154.974034 60.8777277,155.096023 61.7089391,154.811179 C62.035209,154.700779 62.1332095,154.675771 61.9252573,154.413494 C61.7167075,154.151828 59.768649,151.929797 59.3545372,151.283254 C58.941023,150.636712 57.8504688,148.805656 57.8504688,148.805656 C57.9335302,148.755031 58.5717285,148.376255 58.9475962,148.162774 C59.4364035,147.883419 59.3133053,147.990769 60.0524919,147.545509 C60.2735906,147.411931 60.8920692,147.032545 61.1866683,146.826383 C61.4818648,146.620222 62.0029406,146.19753 62.0029406,146.19753 C62.0029406,146.19753 63.1735683,146.906896 63.4113988,147.044744 C63.6498268,147.182591 64.2892202,147.65103 64.5730631,147.559538 C64.8569059,147.466826 65.0684436,147.386313 64.9794065,147.260055 C64.9142721,147.168563 63.3450692,145.661388 62.8610424,145.110607" id="Fill-61" fill="#FFFFFF"></path>
                    <path d="M305.895855,15.0902067 C305.891478,15.9100002 305.635156,18.0880056 305.646409,18.2015539 C305.662664,18.367509 305.893979,18.2782925 306.193438,18.1447797 C306.492272,18.0125147 306.682951,17.1721328 306.779853,16.8882622 C306.877381,16.6043915 307.333759,15.1831666 307.333759,15.1831666 C307.333759,15.1831666 308.061464,15.1438614 308.451573,15.0951979 C308.841683,15.0465343 309.620652,14.9011676 309.897605,14.846889 C310.822865,14.6665844 310.64469,14.6703277 311.244234,14.5393105 C311.707489,14.4382401 312.500837,14.2778999 312.605241,14.2579354 C312.605241,14.2579354 313.017857,16.5214139 313.138516,17.3418313 C313.2598,18.1622487 313.246047,21.3634362 313.261676,21.7252933 C313.278556,22.0865265 313.376083,22.0359913 313.723681,21.888129 C314.609555,21.5112985 314.612681,21.3334894 314.612681,21.3334894 L315.314128,18.1098418 L316.088721,17.8927275 C316.392556,17.8066305 316.570731,17.4909414 316.485082,17.1864823 C316.399433,16.8820232 316.082469,16.7042142 315.777383,16.7903112 L315.589205,16.8427181 L315.762379,16.0428891 L316.677637,15.7864697 C316.982097,15.7009965 317.160897,15.3846835 317.074623,15.0796006 C316.988349,14.7763893 316.671385,14.5985802 316.366924,14.6840533 L316.039332,14.7763893 L316.384429,13.1873375 C316.384429,13.1873375 317.162773,12.9895639 318.141173,12.6601491 C319.095817,12.338845 320.188624,11.7498914 320.609992,11.4423128 C321.030736,11.1347343 320.999477,10.8078151 320.999477,10.8078151 L320.976345,10.7260853 C320.976345,10.7260853 320.83193,10.4316085 320.313034,10.3879361 C319.792888,10.3455115 318.552539,10.4110201 317.568512,10.6337494 C316.563229,10.8620937 315.795513,11.0985486 315.795513,11.0985486 L314.670197,9.92251304 L314.998414,9.83080098 C315.3035,9.74532784 315.480425,9.42839093 315.394151,9.12455575 C315.309752,8.82009667 314.992163,8.64228758 314.687077,8.72776072 L313.773695,8.98418015 L313.20666,8.39335486 L313.394213,8.34094797 C313.699299,8.25547482 313.877474,7.93853792 313.7912,7.63407884 C313.705551,7.32961977 313.388587,7.15243457 313.083501,7.2385316 L312.308908,7.45564586 L310.025766,5.06988459 C310.025766,5.06988459 309.930114,4.91952672 308.977971,5.05990232 C308.604116,5.11418089 308.49346,5.12166758 308.66976,5.43922838 C308.844809,5.7555414 310.529658,8.48007578 310.855374,9.24309514 C311.179215,10.0061145 312.011324,12.1523014 312.011324,12.1523014 C311.911921,12.1897349 311.150457,12.465495 310.703457,12.6202201 C310.122668,12.8204893 310.276461,12.7306489 309.393088,13.0588158 C309.128639,13.1567668 308.387805,13.4387658 308.030205,13.5997298 C307.672604,13.7613177 307.028673,14.1069536 307.028673,14.1069536 C307.028673,14.1069536 305.89773,13.1311873 305.66704,12.9402764 C305.435725,12.7481179 304.833056,12.1298413 304.508589,12.172266 C304.184748,12.2153145 303.940305,12.2589869 304.012825,12.4099686 C304.065965,12.5191497 305.476987,14.4145322 305.895855,15.0902067" id="Fill-63" fill="#FFFFFF"></path>
                </g>
            </g>
        </g>
    </g>
</svg>