<?xml version="1.0" encoding="UTF-8"?>
<svg width="40px" height="18px" viewBox="0 0 40 18" version="1.1" xmlns="http://www.w3.org/2000/svg" xmlns:xlink="http://www.w3.org/1999/xlink">
    <title>car</title>
    <defs>
        <linearGradient x1="96.4146509%" y1="40.6046385%" x2="0%" y2="59.6080042%" id="linearGradient-1">
            <stop stop-color="#4CE1FF" offset="0%"></stop>
            <stop stop-color="#003075" offset="100%"></stop>
        </linearGradient>
    </defs>
    <g id="Launch-Page-+-Đặt-vé" stroke="none" stroke-width="1" fill="none" fill-rule="evenodd">
        <g id="1.-Homepage-Copy" transform="translate(-76.000000, -284.000000)" fill="url(#linearGradient-1)" fill-rule="nonzero">
            <g id="xe-sân-bay-copy" transform="translate(16.000000, 248.000000)">
                <g id="car" transform="translate(60.000000, 36.000000)">
                    <g id="Group">
                        <path d="M25.6932812,0.0327642857 C27.0609375,0.0327642857 28.3975,0.291892857 29.66625,0.803628571 L29.66625,0.803628571 L37.2875,3.87545714 C38.935,4.54025 39.9999219,6.12299286 39.9999219,7.90821429 L39.9999219,7.90821429 L39.9999219,13.4266786 C39.9999219,13.8807429 39.6335156,14.2493214 39.1819531,14.2493214 L39.1819531,14.2493214 L35.451875,14.2493214 C35.2760156,15.0497286 34.8727344,15.7819357 34.2764062,16.3660357 C33.4853906,17.1402 32.4407812,17.5671571 31.3357031,17.5671571 C30.2314062,17.5671571 29.186875,17.1402 28.3958594,16.36525 C27.7995312,15.7819357 27.39625,15.0498071 27.2203906,14.2493214 L27.2203906,14.2493214 L12.5594531,14.2493214 C12.384375,15.0472929 11.9803125,15.78115 11.3839844,16.3660357 C10.5921875,17.1402 9.54757812,17.5671571 8.44328125,17.5671571 C7.33820312,17.5671571 6.29359375,17.1402 5.50179687,16.3660357 C4.90632812,15.7819357 4.50304687,15.0498071 4.3271875,14.2493214 L4.3271875,14.2493214 L0.81796875,14.2493214 C0.366484375,14.2493214 -2.84217094e-14,13.8808214 -2.84217094e-14,13.4266786 L-2.84217094e-14,13.4266786 L-2.84217094e-14,10.4864571 C-2.84217094e-14,9.26647857 0.436796875,8.08594286 1.2303125,7.16280714 C2.02453125,6.23896429 3.12234375,5.63349286 4.323125,5.45741429 L4.323125,5.45741429 L9.276875,4.73102143 L16.1824219,1.19931429 C17.6744531,0.435835714 19.348125,0.0327642857 21.0217187,0.0327642857 L21.0217187,0.0327642857 Z M8.4425,10.7325429 C7.01757812,10.7325429 5.86257812,11.8941429 5.86257812,13.3272071 C5.86257812,14.7602714 7.01757812,15.9218714 8.4425,15.9218714 C9.8675,15.9218714 11.0225,14.7602714 11.0224219,13.3272071 C11.0224219,11.8941429 9.86742187,10.7325429 8.4425,10.7325429 Z M31.3366406,10.7325429 C29.9117187,10.7325429 28.7558594,11.8941429 28.7558594,13.3272071 C28.7558594,14.7602714 29.9117187,15.9218714 31.3366406,15.9218714 C32.7615625,15.9218714 33.9165625,14.7602714 33.9165625,13.3272071 C33.9165625,11.8941429 32.7615625,10.7325429 31.3366406,10.7325429 Z M8.4425,12.2363214 C8.58107639,12.2363214 8.7135354,12.2624206 8.83530292,12.3099896 C9.27754369,12.4402606 9.6,12.8492638 9.6,13.3333333 C9.6,13.8615721 9.21601364,14.3004205 8.71115933,14.3852009 C8.62509831,14.4064221 8.5351669,14.4180929 8.4425,14.4180929 C7.84375,14.4180929 7.35867188,13.9293786 7.35867188,13.3272071 C7.35867188,12.7249571 7.84375,12.2363214 8.4425,12.2363214 Z M31.3366406,12.2363214 C31.4458671,12.2363214 31.5513108,12.2525825 31.6507169,12.2828281 C32.1523985,12.369742 32.5333333,12.8071977 32.5333333,13.3333333 C32.5333333,13.9222126 32.0561252,14.4 31.4670894,14.4 L31.5603905,14.3948205 C31.4881937,14.4100725 31.41335,14.4180929 31.3366406,14.4180929 C30.7370313,14.4180929 30.2519531,13.9293786 30.2519531,13.3272071 C30.2519531,12.7249571 30.7370313,12.2363214 31.3366406,12.2363214 Z M35.2760156,6.34762857 L9.59101562,6.34762857 L6.15132812,6.8519 C5.86585937,9.11098571 3.9534375,10.8649357 1.63601562,10.8863071 L1.63601562,10.8863071 L1.63601562,12.6040357 L4.28960937,12.6040357 C4.63234375,10.6098929 6.36320312,9.0871 8.44335937,9.0871 C10.5226562,9.0871 12.254375,10.6098929 12.5971094,12.6040357 L12.5971094,12.6040357 L27.1828125,12.6040357 C27.5255469,10.6098929 29.2564062,9.0871 31.3357812,9.0871 C33.4159375,9.0871 35.1467969,10.6098929 35.4895312,12.6040357 L35.4895312,12.6040357 L38.3639844,12.6040357 L38.3639844,10.14915 L37.9901562,10.14915 C36.4939844,10.14915 35.2760156,8.92422143 35.2760156,7.41871429 L35.2760156,7.41871429 L35.2760156,6.34762857 Z M22.6635334,8.53333333 C23.1070594,8.53333333 23.4666667,8.89153773 23.4666667,9.33333333 C23.4666667,9.77512894 23.1070594,10.1333333 22.6635334,10.1333333 L22.6635334,10.1333333 L17.3364666,10.1333333 C16.8929406,10.1333333 16.5333333,9.77512894 16.5333333,9.33333333 C16.5333333,8.89153773 16.8928639,8.53333333 17.3364666,8.53333333 L17.3364666,8.53333333 Z M4.43273437,7.10772857 C3.25804687,7.32576429 2.3034375,8.15257143 1.87734375,9.22774286 C3.09289062,9.11090714 4.0965625,8.25204286 4.43273437,7.10772857 Z M37.8715625,6.34770714 L36.9120312,6.34770714 L36.9120312,7.41879286 C36.9120312,8.01687857 37.39625,8.50386429 37.9901562,8.50386429 L37.9901562,8.50386429 L38.3639844,8.50386429 L38.3639844,7.90829286 C38.3639844,7.33322857 38.1848437,6.7936 37.8715625,6.34770714 L37.8715625,6.34770714 Z M28.5471875,2.14295714 L30.5014062,4.70226429 L34.9407031,4.70226429 L29.0576562,2.33050714 C28.8883594,2.26309286 28.7182031,2.20055 28.5471875,2.14295714 L28.5471875,2.14295714 Z M25.6932812,1.67812857 L21.7889844,1.67812857 L21.7889844,4.70226429 L28.4384375,4.70226429 L26.1374219,1.68881429 C25.9902344,1.68142857 25.8421875,1.67812857 25.6932812,1.67812857 L25.6932812,1.67812857 Z M20.1529687,1.72173571 C19.0307031,1.83118571 17.9288281,2.15199286 16.9235156,2.66616429 L16.9235156,2.66616429 L12.9423437,4.70226429 L20.1529687,4.70226429 Z" id="Combined-Shape"></path>
                    </g>
                </g>
            </g>
        </g>
    </g>
</svg>