<?xml version="1.0" encoding="UTF-8"?>
<svg width="32px" height="32px" viewBox="0 0 32 32" version="1.1" xmlns="http://www.w3.org/2000/svg" xmlns:xlink="http://www.w3.org/1999/xlink">
    <title>air-freight</title>
    <defs>
        <linearGradient x1="96.4146509%" y1="1.10659148%" x2="16.2344785%" y2="84.9223181%" id="linearGradient-1">
            <stop stop-color="#4CE1FF" offset="0%"></stop>
            <stop stop-color="#003075" offset="100%"></stop>
        </linearGradient>
    </defs>
    <g id="Launch-Page-+-Đặt-vé" stroke="none" stroke-width="1" fill="none" fill-rule="evenodd">
        <g id="1.-Homepage-Copy" transform="translate(-80.000000, -160.000000)" fill="url(#linearGradient-1)" fill-rule="nonzero">
            <g id="vé-máy-bay-copy" transform="translate(16.000000, 136.000000)">
                <g id="air-freight" transform="translate(64.000000, 24.000000)">
                    <path d="M25.0141837,1.8283467 C27.5134476,-0.100378289 30.0368813,-0.551065136 31.2942036,0.705535772 C32.5512817,1.96311331 32.1001105,4.48632508 30.1723791,6.98463428 C30.1714026,6.98609917 30.1701818,6.98756399 30.1692053,6.98878469 C29.338396,8.06130232 28.917254,8.34670477 25.1489491,12.1543497 L25.1489491,12.1543497 L25.5200423,14.4346398 L26.5666716,13.3882455 C27.2995807,12.6553299 28.4853699,12.6553299 29.2180348,13.3882455 C29.9509439,14.1209168 29.9509439,15.3074489 29.2180348,16.0403643 L29.2180348,16.0403643 L26.262717,18.9957082 L27.9455758,29.3314768 C28.05373,29.9996946 27.832783,30.6835375 27.3550006,31.1613242 C26.436789,32.0795437 24.9160394,31.9574725 24.1560308,30.9071719 L24.1560308,30.9071719 L16.6968135,20.6065597 L14.7681054,22.5352847 C14.1074619,23.1956899 13.199016,23.8912516 12.0632756,24.6065889 L12.0632756,24.6065889 L13.4756269,29.4100907 C13.6841227,30.1190803 13.4890547,30.8847108 12.9665945,31.407908 C12.0759709,32.2985395 10.5952602,32.1671909 9.87675542,31.1298298 L9.87675542,31.1298298 L7.15044115,27.1915687 C5.63750399,27.8771205 4.54351146,28.2941158 4.49297447,28.3131588 C4.264215,28.4000736 4.00396152,28.3456298 3.8291571,28.1708239 C3.65532923,27.9969945 3.59942113,27.7369828 3.68682331,27.5070007 C3.70611041,27.4564632 4.12285784,26.3624611 4.80840368,24.8495106 L4.80840368,24.8495106 L0.870421305,22.1234165 C-0.165221634,21.4061261 -0.299987056,19.9254025 0.591613163,19.0337943 C1.115294,18.5110855 1.88091784,18.3160157 2.58990115,18.5242692 L2.58990115,18.5242692 L7.39360485,19.9368771 C8.10844752,18.8018591 8.8040031,17.8929169 9.46489079,17.2320235 L9.46489079,17.2320235 L11.3933547,15.3032984 L1.09283309,7.84377142 C0.0442506753,7.08497683 -0.0805049492,5.56421381 0.838683103,4.64501761 C1.31670969,4.16698681 2.00005829,3.94603795 2.66802603,4.05443718 L2.66802603,4.05443718 L13.0044362,5.73731076 L15.9599982,2.78172278 C16.6926631,2.04880731 17.8791847,2.04905144 18.6118496,2.78172278 C19.3450028,3.51463831 19.3447587,4.70043795 18.6118496,5.43335348 L18.6118496,5.43335348 L17.5654645,6.47974779 L19.8457345,6.85108843 C23.6494397,3.08665669 23.9416756,2.65867501 25.0141837,1.8283467 Z M10.955367,25.2699238 C10.1516573,25.7284233 9.26249853,26.1922938 8.29960936,26.6551878 L8.29960936,26.6551878 L10.9043417,30.4181547 C11.1799761,30.8161068 11.7454049,30.8615173 12.0823185,30.5246008 C12.2815369,30.3251364 12.3559997,30.0331421 12.27641,29.7626323 L12.27641,29.7626323 Z M24.0598395,13.243469 L17.5918317,19.7115337 L25.1687246,30.1742564 C25.4795151,30.603947 26.0993872,30.6493576 26.4712128,30.2775287 C26.6657926,30.0829472 26.7558804,29.8041365 26.711691,29.5319177 L26.711691,29.5319177 L24.0598395,13.243469 Z M25.8729004,2.9213238 L25.6379621,2.92991723 C24.7114498,3.67088945 25.6159895,2.88523916 10.3489226,18.1158189 C9.67875765,18.7857457 8.95634662,19.7586532 8.20170907,21.0071974 C7.16997237,22.7130204 6.19536447,24.7411114 5.40996528,26.5902459 C7.2102555,25.8255919 9.20610212,24.869042 10.892623,23.8590249 C12.1899843,23.0819196 13.1965746,22.3392384 13.8843178,21.6512451 C29.1037772,6.39478623 28.3274112,7.29054476 29.0700859,6.36182699 C29.1357596,5.33423163 28.8303401,4.42919578 28.2004582,3.79930832 C27.5705764,3.16942098 26.6657926,2.86424294 25.6379621,2.92991723 Z M2.23736262,19.7234967 C1.96709934,19.6439062 1.67510759,19.7186138 1.47540089,19.9180782 C1.13555766,20.2576803 1.18731539,20.8223816 1.58209017,21.0958211 L1.58209017,21.0958211 L5.34477981,23.7005764 C5.80718143,22.7384112 6.27080379,21.8494887 6.73027579,21.0447954 L6.73027579,21.0447954 Z M28.3342471,14.2720409 C28.0898627,14.0276544 27.6948438,14.0278985 27.4507036,14.2720409 L27.4507036,14.2720409 L25.7678447,15.9549145 L26.0151588,17.4751892 L28.3342471,15.1563247 C28.5783874,14.9119382 28.5786315,14.5164275 28.3342471,14.2720409 Z M14.6288201,16.0532104 C14.9339137,15.7481169 15.4276715,15.7481169 15.7321555,16.0532104 C16.037249,16.3573895 16.037249,16.8514522 15.7321555,17.1565457 C15.4276715,17.4616392 14.9339137,17.4616392 14.6288201,17.1565457 C14.3237266,16.8514522 14.3237266,16.3573895 14.6288201,16.0532104 Z M17.9791301,12.8918836 C18.2317152,12.6392908 18.640903,12.6392908 18.893488,12.8918836 C19.1460731,13.1444763 19.1460731,13.5539291 18.893488,13.8062692 L18.893488,13.8062692 L17.0650249,15.6350404 C16.8121873,15.8873805 16.4029994,15.8876331 16.1504144,15.6350404 C15.8978293,15.3824477 15.8978293,14.9729949 16.1504144,14.7204022 L16.1504144,14.7204022 Z M2.4675869,5.28808873 C2.19610293,5.24389897 1.91729473,5.3339875 1.72271496,5.52881317 C1.34893621,5.90235102 1.39800845,6.52174028 1.82574218,6.83106873 L1.82574218,6.83106873 L12.288617,14.4080283 L18.7566248,7.94020768 Z M21.8817701,8.98940431 C22.1343092,8.73686523 22.5434225,8.73686523 22.7959615,8.98940431 C23.0485006,9.24194338 23.0485006,9.65130921 22.7959615,9.90384828 L22.7959615,9.90384828 L20.9670736,11.7327363 C20.7145345,11.9850229 20.3054211,11.9850229 20.0526295,11.7327363 C19.800343,11.4801972 19.800343,11.0708313 20.0526295,10.8182923 L20.0526295,10.8182923 Z M17.728062,3.66576247 C17.4836775,3.42137594 17.0879262,3.42137594 16.8437859,3.66576247 L16.8437859,3.66576247 L14.5246976,5.98462699 L16.044959,6.23218742 L17.728062,4.54931378 C17.9722022,4.30492725 17.9724463,3.910149 17.728062,3.66576247 Z M30.4104158,1.58933134 C29.7085127,0.887910163 28.1853216,1.40158578 27.2807819,1.86032938 C27.9695016,2.06003789 28.5837585,2.41502092 29.0844901,2.91551288 C29.5852218,3.4162489 29.9399576,4.03051119 30.1396643,4.71948109 C30.8269192,3.36424659 30.9646143,2.14377869 30.4104158,1.58933134 Z" id="Combined-Shape"></path>
                </g>
            </g>
        </g>
    </g>
</svg>